{
  "_format": "hh-sol-artifact-1",
  "contractName": "Address",
  "sourceName": "contracts/HatSwap.sol",
  "abi": [],
  "bytecode": "0x60566037600b82828239805160001a607314602a57634e487b7160e01b600052600060045260246000fd5b30600052607381538281f3fe73000000000000000000000000000000000000000030146080604052600080fdfea2646970667358221220f6cd4afe6b3f0a0c069fea1208b5e4921ded6040a00a67c5aebd145a0266f00a64736f6c63430008030033",
  "deployedBytecode": "0x73000000000000000000000000000000000000000030146080604052600080fdfea2646970667358221220f6cd4afe6b3f0a0c069fea1208b5e4921ded6040a00a67c5aebd145a0266f00a64736f6c63430008030033",
  "linkReferences": {},
  "deployedLinkReferences": {}
}
